VHDL/waveform.vcd
$date
  Mon Jan  4 23:18:37 2021
$end
$version
  GHDL v0
$end
$timescale
  1 fs
$end
$var reg 1 ! clrn $end
$var reg 1 " clk $end
$var reg 1 # up $end
$var reg 1 $ hold $end
$var reg 3 % zustandsvektor[2:0] $end
$enddefinitions $end
#0
1!
0"
1#
1$
bUUU %
#4000000
1"
#8000000
0"
0$
#12000000
1"
#16000000
0"
1$
#20000000
1"
#24000000
0"
0$
#28000000
1"
#32000000
0"
1$
#36000000
1"
#40000000
0"
0$
#44000000
1"
#48000000
0"
1$
#52000000
1"
#56000000
0"
0$
#60000000
1"
#64000000
0"
1$
#68000000
1"
#72000000
0"
0$
#76000000
1"
#80000000
0"
1$
#84000000
1"
#88000000
0"
0$
#92000000
1"
#96000000
0"
1$
#100000000
1"
#104000000
0"
0$
#108000000
1"
#112000000
0"
1$
#116000000
1"
#120000000
0"
0$
#124000000
1"
#128000000
0"
0#
1$
#132000000
1"
#136000000
0"
0$
#140000000
1"
#144000000
0"
1$
#148000000
1"
#152000000
0"
0$
#156000000
1"
#160000000
0"
1$
#164000000
1"
#168000000
0"
0$
#172000000
1"
#176000000
0"
1$
#180000000
1"
#184000000
0"
0$
#188000000
1"
#192000000
0"
1$
#196000000
1"
#200000000
0"
0$
#204000000
1"
#208000000
0"
1$
#212000000
1"
#216000000
0"
0$
#220000000
1"
#224000000
0"
1$
#228000000
1"
#232000000
0"
0$
#236000000
1"
#240000000
0"
1$
#244000000
1"
#248000000
0!
0"
0$
#252000000
1"
#256000000
1!
0"
1#
1$
#260000000
1"
#264000000
0"
0$
